{
	"info": {
		"_postman_id": "5ca991ed-5465-4325-8050-f15e2fce2c3d",
		"name": "Jojo Mock",
		"schema": "https://schema.getpostman.com/json/collection/v2.1.0/collection.json",
		"_exporter_id": "24878274"
	},
	"item": [
		{
			"name": "v1/home",
			"protocolProfileBehavior": {
				"disableBodyPruning": true
			},
			"request": {
				"method": "GET",
				"header": [],
				"body": {
					"mode": "raw",
					"raw": ""
				},
				"url": {
					"raw": "{{url}}/v1/home",
					"host": [
						"{{url}}"
					],
					"path": [
						"v1",
						"home"
					]
				}
			},
			"response": [
				{
					"name": "Default",
					"originalRequest": {
						"method": "GET",
						"header": [],
						"body": {
							"mode": "raw",
							"raw": ""
						},
						"url": {
							"raw": "{{url}}/v1/home",
							"host": [
								"{{url}}"
							],
							"path": [
								"v1",
								"home"
							]
						}
					},
					"code": 200,
					"_postman_previewlanguage": null,
					"header": null,
					"cookie": [],
					"body": "Hello Jojo"
				}
			]
		}
	],
	"variable": [
		{
			"key": "url",
			"value": "https://94d0efe0-3018-45b9-9864-cc2faac80e79.mock.pstmn.io"
		}
	]
}